{"success": true, "statusCode": 200, "message": "OK", "data": {"invoiceData": [{"summary": {"id": "1194863", "order_id": "4115", "discount": "$0.00", "total": "$151.80", "total_tax": "$0.00", "created_date": 1516158291, "amount_paid": "$85.00", "sub_total": "$151.80", "customer": {"fullName": "Rosie Bautista", "id": "1806793", "mobile": "+1 760-899-6029", "address1": "", "fullname": "Rosie", "address2": "", "orgonization": "", "email": "", "phone": ""}, "ticket": {"hasTicket": true, "id": "1091422", "order_id": "T-2068"}, "amount_due": "$66.80", "status": "Partial"}, "line_items": [{"name": "Screen Replacement"}]}, {"summary": {"id": "1194853", "order_id": "4114", "discount": "$10.00", "total": "$94.81", "total_tax": "$4.81", "created_date": 1516158096, "amount_paid": "$94.81", "sub_total": "$100.00", "customer": {"fullName": "Rosie Bautista", "id": "1806793", "mobile": "+1 760-899-6029", "address1": "", "fullname": "Rosie", "address2": "", "orgonization": "", "email": "", "phone": ""}, "ticket": {"hasTicket": true, "id": "1091334", "order_id": "T-2067"}, "amount_due": "$0.00", "status": "Paid"}, "line_items": [{"name": "Screen (Digitizer+LCD) White"}, {"name": "Tempered Glass 6/6S"}]}, {"summary": {"id": "1194569", "order_id": "4113", "discount": "$0.00", "total": "$133.75", "total_tax": "$8.75", "created_date": 1516152824, "amount_paid": "$133.75", "sub_total": "$125.00", "customer": {"fullName": "Ana Garcia", "id": "655422", "mobile": "+1 760-668-6590", "address1": "", "fullname": "Ana", "address2": "", "orgonization": "", "email": "", "phone": ""}, "ticket": {"hasTicket": true, "id": "1090828", "order_id": "T-2062"}, "amount_due": "$0.00", "status": "Paid"}, "line_items": [{"name": "Aftermarket Screen Replacement (Digitizer+LCD)"}]}, {"summary": {"id": "1194563", "order_id": "4112", "discount": "$10.00", "total": "$50.00", "total_tax": "$0.00", "created_date": 1516152675, "amount_paid": "$50.00", "sub_total": "$60.00", "customer": {"fullName": "Christopher Lopez", "id": "1800973", "mobile": "+1 951-425-0496", "address1": "", "fullname": "Christopher", "address2": "", "orgonization": "", "email": "", "phone": ""}, "ticket": {"hasTicket": true, "id": "1085631", "order_id": "T-2054"}, "amount_due": "$0.00", "status": "Paid"}, "line_items": [{"name": "Charging Port Replacement"}]}, {"summary": {"id": "1194396", "order_id": "4111", "discount": "$0.00", "total": "$77.63", "total_tax": "$2.63", "created_date": 1516149795, "amount_paid": "$77.63", "sub_total": "$75.00", "customer": {"fullName": "Tereca Lara", "id": "1806580", "mobile": "+1 760-766-6030", "address1": "", "fullname": "Tereca", "address2": "", "orgonization": "", "email": "", "phone": ""}, "ticket": {"hasTicket": true, "id": "1091036", "order_id": "T-2066"}, "amount_due": "$0.00", "status": "Paid"}, "line_items": [{"name": "Screen (Digitizer+LCD) White"}]}, {"summary": {"id": "1194339", "order_id": "4110", "discount": "$0.00", "total": "$267.50", "total_tax": "$17.50", "created_date": 1516148666, "amount_paid": "$267.50", "sub_total": "$250.00", "customer": {"fullName": "Fernando Rojas", "id": "1806287", "mobile": "+1 760-899-4438", "address1": "", "fullname": "Fernando", "address2": "", "orgonization": "", "email": "", "phone": ""}, "ticket": {"hasTicket": true, "id": "1090666", "order_id": "T-2061"}, "amount_due": "$0.00", "status": "Paid"}, "line_items": [{"name": "Aftermarket Screen Replacement (Digitizer+LCD)"}, {"name": "Aftermarket Screen Replacement (Digitizer+LCD)"}]}, {"summary": {"id": "1194090", "order_id": "4109", "discount": "$0.00", "total": "$115.86", "total_tax": "$5.86", "created_date": 1516143764, "amount_paid": "$60.00", "sub_total": "$110.00", "customer": {"fullName": "Tom May", "id": "1806515", "mobile": "+1 760-610-2822", "address1": "", "fullname": "Tom", "address2": "", "orgonization": "", "email": "", "phone": ""}, "ticket": {"hasTicket": true, "id": "1090953", "order_id": "T-2064"}, "amount_due": "$55.86", "status": "Partial"}, "line_items": [{"name": "Screen Replacement"}]}, {"summary": {"id": "1194067", "order_id": "4108", "discount": "$0.00", "total": "$25.20", "total_tax": "$0.00", "created_date": 1516143247, "amount_paid": "$25.20", "sub_total": "$25.20", "customer": {"fullName": "Oscar Perez", "id": "377533", "mobile": "+1 760-880-4724", "address1": "", "fullname": "Oscar", "address2": "", "orgonization": "", "email": "", "phone": ""}, "ticket": {"hasTicket": false, "id": "", "order_id": ""}, "amount_due": "$0.00", "status": "Paid"}, "line_items": [{"name": "T-Mobile Plan (Think Digital)"}]}, {"summary": {"id": "1194021", "order_id": "4107", "discount": "$10.00", "total": "$94.81", "total_tax": "$4.81", "created_date": 1516142160, "amount_paid": "$94.81", "sub_total": "$100.00", "customer": {"fullName": "Heith Grishal", "id": "443781", "mobile": "+1 760-625-2385", "address1": "", "fullname": "Heith", "address2": "", "orgonization": "", "email": "", "phone": "+1 760-625-6063"}, "ticket": {"hasTicket": true, "id": "1090863", "order_id": "T-2063"}, "amount_due": "$0.00", "status": "Paid"}, "line_items": [{"name": "Screen (Digitizer+LCD) White"}, {"name": "iPhone 6 Tempered Glass"}]}, {"summary": {"id": "1194012", "order_id": "4106", "discount": "$0.00", "total": "$77.08", "total_tax": "$7.08", "created_date": 1516141844, "amount_paid": "$77.08", "sub_total": "$70.00", "customer": {"fullName": "Gus Casillas", "id": "263942", "mobile": "+1 442-234-2618", "address1": "", "fullname": "Gus", "address2": "", "orgonization": "", "email": "", "phone": ""}, "ticket": {"hasTicket": false, "id": "", "order_id": ""}, "amount_due": "$0.00", "status": "Paid"}, "line_items": [{"name": "Verizon Prepaid SIM"}, {"name": "Verizon Prepaid"}]}, {"summary": {"id": "1193698", "order_id": "4105", "discount": "$0.00", "total": "$111.80", "total_tax": "$11.80", "created_date": 1516132018, "amount_paid": "$111.80", "sub_total": "$100.00", "customer": {"fullName": "Isabela Cruz", "id": "537699", "mobile": "+1 760-910-8721", "address1": "", "fullname": "Isabela", "address2": "", "orgonization": "", "email": "", "phone": ""}, "ticket": {"hasTicket": false, "id": "", "order_id": ""}, "amount_due": "$0.00", "status": "Paid"}, "line_items": [{"name": "T-Mobile Plan (Think Digital)"}]}, {"summary": {"id": "1192109", "order_id": "4104", "discount": "$0.00", "total": "$59.13", "total_tax": "$4.13", "created_date": 1516069148, "amount_paid": "$59.13", "sub_total": "$55.00", "customer": {"fullName": "Sergio Leon", "id": "1804233", "mobile": "+1 760-447-4347", "address1": "", "fullname": "Sergio", "address2": "", "orgonization": "", "email": "", "phone": "+1 760-396-7767"}, "ticket": {"hasTicket": false, "id": "", "order_id": ""}, "amount_due": "$0.00", "status": "Paid"}, "line_items": [{"name": "Net 10 SIM Card"}, {"name": "Net 10 Plan"}]}, {"summary": {"id": "1192019", "order_id": "4103", "discount": "$39.00", "total": "$204.69", "total_tax": "$5.69", "created_date": 1516067471, "amount_paid": "$100.00", "sub_total": "$238.00", "customer": {"fullName": "Eleazar Vizcarra", "id": "385046", "mobile": "+1 760-832-2440", "address1": "", "fullname": "Eleazar", "address2": "", "orgonization": "", "email": "", "phone": ""}, "ticket": {"hasTicket": true, "id": "1089189", "order_id": "T-2059"}, "amount_due": "$104.69", "status": "Partial"}, "line_items": [{"name": "Screen (Digitizer+LCD), Touch IC Replacement"}]}, {"summary": {"id": "1191949", "order_id": "4102", "discount": "$0.00", "total": "$250.00", "total_tax": "$0.00", "created_date": 1516066440, "amount_paid": "$250.00", "sub_total": "$250.00", "customer": {"fullName": "Allana Vigil", "id": "1636756", "mobile": "+1 760-534-9887", "address1": "", "fullname": "Allana", "address2": "", "orgonization": "", "email": "", "phone": ""}, "ticket": {"hasTicket": true, "id": "972782", "order_id": "T-1995"}, "amount_due": "$0.00", "status": "Paid"}, "line_items": [{"name": "Data Forensics"}]}, {"summary": {"id": "1191885", "order_id": "4101", "discount": "$0.00", "total": "$75.90", "total_tax": "$5.90", "created_date": 1516065398, "amount_paid": "$75.90", "sub_total": "$70.00", "customer": {"fullName": "Arturo Vargas", "id": "1804113", "mobile": "+1 760-832-4375", "address1": "", "fullname": "Arturo", "address2": "", "orgonization": "", "email": "", "phone": "+1 442-260-0138"}, "ticket": {"hasTicket": false, "id": "", "order_id": ""}, "amount_due": "$0.00", "status": "Paid"}, "line_items": [{"name": "Net 10 SIM Card"}, {"name": "Net 10 Plan"}]}, {"summary": {"id": "1191848", "order_id": "4100", "discount": "$0.00", "total": "$55.90", "total_tax": "$5.90", "created_date": 1516064852, "amount_paid": "$55.90", "sub_total": "$50.00", "customer": {"fullName": "Sabrina Conant", "id": "644775", "mobile": "+1 442-400-0324", "address1": "", "fullname": "Sabrina", "address2": "", "orgonization": "", "email": "", "phone": ""}, "ticket": {"hasTicket": false, "id": "", "order_id": ""}, "amount_due": "$0.00", "status": "Paid"}, "line_items": [{"name": "T-Mobile Plan (Think Digital)"}]}, {"summary": {"id": "1191613", "order_id": "4099", "discount": "$0.00", "total": "$60.88", "total_tax": "$0.88", "created_date": 1516061487, "amount_paid": "$21.00", "sub_total": "$60.00", "customer": {"fullName": "Ofelia Linares", "id": "1804009", "mobile": "+1 760-296-6131", "address1": "", "fullname": "Ofelia", "address2": "", "orgonization": "", "email": "", "phone": ""}, "ticket": {"hasTicket": true, "id": "1088974", "order_id": "T-2058"}, "amount_due": "$39.88", "status": "Partial"}, "line_items": [{"name": "Headphone Jack Replacement"}]}, {"summary": {"id": "1191536", "order_id": "4098", "discount": "$0.00", "total": "$60.00", "total_tax": "$0.00", "created_date": 1516060280, "amount_paid": "$60.00", "sub_total": "$60.00", "customer": {"fullName": "Francisco Florez", "id": "1803799", "mobile": "+1 760-541-3010", "address1": "", "fullname": "Francisco", "address2": "", "orgonization": "", "email": "", "phone": ""}, "ticket": {"hasTicket": true, "id": "1088689", "order_id": "T-2056"}, "amount_due": "$0.00", "status": "Paid"}, "line_items": [{"name": "Home button Replacement"}, {"name": "Factory Reset"}]}, {"summary": {"id": "1191489", "order_id": "4097", "discount": "$0.00", "total": "$202.06", "total_tax": "$17.06", "created_date": 1516059580, "amount_paid": "$138.92", "sub_total": "$185.00", "customer": {"fullName": "Ben Haze", "id": "1803949", "mobile": "+1 321-512-5230", "address1": "", "fullname": "Ben", "address2": "", "orgonization": "", "email": "benjamingerardhayes@outlook.com", "phone": ""}, "ticket": {"hasTicket": true, "id": "1088898", "order_id": "T-2057"}, "amount_due": "$63.14", "status": "Partial"}, "line_items": [{"name": "Screen Replacement"}]}, {"summary": {"id": "1191377", "order_id": "4096", "discount": "$0.00", "total": "$55.90", "total_tax": "$5.90", "created_date": 1516057743, "amount_paid": "$55.90", "sub_total": "$50.00", "customer": {"fullName": "Deborah Mendez", "id": "119482", "mobile": "+1 760-442-4155", "address1": "", "fullname": "Deborah", "address2": "", "orgonization": "", "email": "", "phone": ""}, "ticket": {"hasTicket": false, "id": "", "order_id": ""}, "amount_due": "$0.00", "status": "Paid"}, "line_items": [{"name": "T-Mobile Plan (Think Digital)"}]}, {"summary": {"id": "1191250", "order_id": "4095", "discount": "$0.00", "total": "$131.56", "total_tax": "$6.56", "created_date": 1516055204, "amount_paid": "$131.56", "sub_total": "$125.00", "customer": {"fullName": "Ashton Wolf", "id": "1803698", "mobile": "+1 858-334-3702", "address1": "", "fullname": "Ashton", "address2": "", "orgonization": "", "email": "", "phone": ""}, "ticket": {"hasTicket": true, "id": "1088556", "order_id": "T-2055"}, "amount_due": "$0.00", "status": "Paid"}, "line_items": [{"name": "Aftermarket Screen Replacement (Digitizer+LCD)"}]}, {"summary": {"id": "1190936", "order_id": "4094", "discount": "$0.00", "total": "$10.00", "total_tax": "$0.00", "created_date": 1516047615, "amount_paid": "$10.00", "sub_total": "$10.00", "customer": {"fullName": "Walk In", "id": "0", "mobile": "", "address1": "", "fullname": "Walk", "address2": "", "orgonization": "", "email": "", "phone": ""}, "ticket": {"hasTicket": false, "id": "", "order_id": ""}, "amount_due": "$0.00", "status": "Paid"}, "line_items": [{"name": "Bolt Flat Lightning Cable"}]}, {"summary": {"id": "1190853", "order_id": "4093", "discount": "$0.00", "total": "$44.72", "total_tax": "$4.72", "created_date": 1516045334, "amount_paid": "$44.72", "sub_total": "$40.00", "customer": {"fullName": "Esmeralda Bautista", "id": "1081541", "mobile": "+1 442-226-2915", "address1": "", "fullname": "Esmeralda", "address2": "", "orgonization": "", "email": "", "phone": ""}, "ticket": {"hasTicket": false, "id": "", "order_id": ""}, "amount_due": "$0.00", "status": "Paid"}, "line_items": [{"name": "T-Mobile Plan (Think Digital)"}]}, {"summary": {"id": "1187853", "order_id": "4092", "discount": "$0.00", "total": "$55.90", "total_tax": "$5.90", "created_date": 1515908914, "amount_paid": "$55.90", "sub_total": "$50.00", "customer": {"fullName": "David Contreras", "id": "431317", "mobile": "+1 760-619-5030", "address1": "", "fullname": "David", "address2": "", "orgonization": "", "email": "", "phone": ""}, "ticket": {"hasTicket": false, "id": "", "order_id": ""}, "amount_due": "$0.00", "status": "Paid"}, "line_items": [{"name": "T-Mobile Plan (Think Digital)"}]}, {"summary": {"id": "1186948", "order_id": "4091", "discount": "$30.00", "total": "$73.50", "total_tax": "$3.50", "created_date": 1515884199, "amount_paid": "$73.50", "sub_total": "$100.00", "customer": {"fullName": "Gabriel Barajas", "id": "115177", "mobile": "+1 760-238-3359", "address1": "", "fullname": "Gabriel", "address2": "", "orgonization": "", "email": "", "phone": ""}, "ticket": {"hasTicket": true, "id": "1085416", "order_id": "T-2052"}, "amount_due": "$0.00", "status": "Paid"}, "line_items": [{"name": "Charger Port Replacement, Battery Replacement"}]}, {"summary": {"id": "1185040", "order_id": "4090", "discount": "$0.00", "total": "$60.00", "total_tax": "$0.00", "created_date": 1515812034, "amount_paid": "$60.00", "sub_total": "$60.00", "customer": {"fullName": "Flor Escobar", "id": "1799210", "mobile": "+1 760-996-9853", "address1": "", "fullname": "Flor", "address2": "", "orgonization": "", "email": "", "phone": ""}, "ticket": {"hasTicket": true, "id": "1083732", "order_id": "T-2050"}, "amount_due": "$0.00", "status": "Paid"}, "line_items": [{"name": "Factory Reset Protection Removal"}]}, {"summary": {"id": "1184731", "order_id": "4089", "discount": "$0.00", "total": "$60.00", "total_tax": "$0.00", "created_date": 1515806781, "amount_paid": "$60.00", "sub_total": "$60.00", "customer": {"fullName": "Bea Mancilla", "id": "1799196", "mobile": "+1 760-485-1629", "address1": "", "fullname": "Bea", "address2": "", "orgonization": "", "email": "", "phone": ""}, "ticket": {"hasTicket": true, "id": "1083723", "order_id": "T-2049"}, "amount_due": "$0.00", "status": "Paid"}, "line_items": [{"name": "Virus Removal/ OS Reinstallation"}]}, {"summary": {"id": "1184604", "order_id": "4088", "discount": "$20.00", "total": "$20.00", "total_tax": "$0.00", "created_date": 1515804798, "amount_paid": "$20.00", "sub_total": "$40.00", "customer": {"fullName": "Chelsea Clark", "id": "1794903", "mobile": "+1 760-601-5072", "address1": "", "fullname": "Chelsea", "address2": "", "orgonization": "", "email": "", "phone": ""}, "ticket": {"hasTicket": true, "id": "1083484", "order_id": "T-2047"}, "amount_due": "$0.00", "status": "Paid"}, "line_items": [{"name": "Diagnosis"}]}, {"summary": {"id": "1184514", "order_id": "4087", "discount": "$0.00", "total": "$78.94", "total_tax": "$3.94", "created_date": 1515803366, "amount_paid": "$78.94", "sub_total": "$75.00", "customer": {"fullName": "Frankie Amado", "id": "1794968", "mobile": "+1 760-219-0711", "address1": "", "fullname": "Frankie", "address2": "", "orgonization": "", "email": "", "phone": ""}, "ticket": {"hasTicket": true, "id": "1083609", "order_id": "T-2048"}, "amount_due": "$0.00", "status": "Paid"}, "line_items": [{"name": "Screen (Digitizer+LCD) Black"}]}, {"summary": {"id": "1184257", "order_id": "4086", "discount": "$0.00", "total": "$20.00", "total_tax": "$0.00", "created_date": 1515798872, "amount_paid": "$20.00", "sub_total": "$20.00", "customer": {"fullName": "Anna Lopez", "id": "150349", "mobile": "+1 760-851-2031", "address1": "", "fullname": "Anna", "address2": "", "orgonization": "", "email": "annaibarra@msn.com", "phone": ""}, "ticket": {"hasTicket": true, "id": "1083450", "order_id": "T-2046"}, "amount_due": "$0.00", "status": "Paid"}, "line_items": [{"name": "Diagnostic"}]}, {"summary": {"id": "1184149", "order_id": "4085", "discount": "$20.00", "total": "$99.69", "total_tax": "$5.69", "created_date": 1515797071, "amount_paid": "$99.69", "sub_total": "$114.00", "customer": {"fullName": "Dengfeng Chen", "id": "1794780", "mobile": "+1 626-234-6601", "address1": "", "fullname": "Dengfeng", "address2": "", "orgonization": "", "email": "", "phone": ""}, "ticket": {"hasTicket": true, "id": "1083320", "order_id": "T-2045"}, "amount_due": "$0.00", "status": "Paid"}, "line_items": [{"name": "Screen (Digitizer+LCD)"}, {"name": "Tempered Glass 6/6S"}]}, {"summary": {"id": "1184119", "order_id": "4084", "discount": "$0.00", "total": "$94.69", "total_tax": "$5.69", "created_date": 1515796476, "amount_paid": "$94.69", "sub_total": "$89.00", "customer": {"fullName": "Eneida Romero", "id": "1794636", "mobile": "+1 760-534-4503", "address1": "", "fullname": "Eneida", "address2": "", "orgonization": "", "email": "", "phone": "+1 480-292-3071"}, "ticket": {"hasTicket": true, "id": "1083124", "order_id": "T-2043"}, "amount_due": "$0.00", "status": "Paid"}, "line_items": [{"name": "Screen (Digitizer+LCD)"}]}, {"summary": {"id": "1184112", "order_id": "4083", "discount": "$0.00", "total": "$30.00", "total_tax": "$0.00", "created_date": 1515796340, "amount_paid": "$30.00", "sub_total": "$30.00", "customer": {"fullName": "Eneida Romero", "id": "1794636", "mobile": "+1 760-534-4503", "address1": "", "fullname": "Eneida", "address2": "", "orgonization": "", "email": "", "phone": "+1 480-292-3071"}, "ticket": {"hasTicket": true, "id": "1083131", "order_id": "T-2044"}, "amount_due": "$0.00", "status": "Paid"}, "line_items": [{"name": "Diagnosis"}]}, {"summary": {"id": "1184105", "order_id": "4082", "discount": "$10.00", "total": "$130.90", "total_tax": "$5.90", "created_date": 1515796249, "amount_paid": "$130.90", "sub_total": "$135.00", "customer": {"fullName": "Jose Ayala", "id": "1794598", "mobile": "+1 760-396-6706", "address1": "", "fullname": "Jose", "address2": "", "orgonization": "", "email": "", "phone": ""}, "ticket": {"hasTicket": true, "id": "1083070", "order_id": "T-2042"}, "amount_due": "$0.00", "status": "Paid"}, "line_items": [{"name": "Samsung Unlock"}, {"name": "Net 10 SIM Card"}, {"name": "Net 10 Plan"}]}, {"summary": {"id": "1183809", "order_id": "4081", "discount": "$0.00", "total": "$5.00", "total_tax": "$0.00", "created_date": 1515787376, "amount_paid": "$5.00", "sub_total": "$5.00", "customer": {"fullName": "Ritchie Gonzalez", "id": "141339", "mobile": "+1 760-646-5405", "address1": "", "fullname": "Ritchie", "address2": "", "orgonization": "", "email": "", "phone": ""}, "ticket": {"hasTicket": false, "id": "", "order_id": ""}, "amount_due": "$0.00", "status": "Paid"}, "line_items": [{"name": "Miscellaneous"}]}, {"summary": {"id": "1181665", "order_id": "4080", "discount": "$0.00", "total": "$16.31", "total_tax": "$1.31", "created_date": 1515721324, "amount_paid": "$16.31", "sub_total": "$15.00", "customer": {"fullName": "Alfredo Reyes", "id": "155019", "mobile": "+1 442-256-5867", "address1": "", "fullname": "Alfredo", "address2": "", "orgonization": "", "email": "reyesalfredo99@yahoo.com", "phone": ""}, "ticket": {"hasTicket": false, "id": "", "order_id": ""}, "amount_due": "$0.00", "status": "Paid"}, "line_items": [{"name": "Tempered Glass 6/6S"}]}, {"summary": {"id": "1181646", "order_id": "4079", "discount": "$40.00", "total": "$115.60", "total_tax": "$0.00", "created_date": 1515721134, "amount_paid": "$115.60", "sub_total": "$155.60", "customer": {"fullName": "Christian Lopez", "id": "435164", "mobile": "+1 760-782-5278", "address1": "", "fullname": "Christian", "address2": "", "orgonization": "", "email": "", "phone": ""}, "ticket": {"hasTicket": true, "id": "1081379", "order_id": "T-2041"}, "amount_due": "$0.00", "status": "Paid"}, "line_items": [{"name": "Screen (Digitizer+LCD) Black, Home Button Replacement"}]}, {"summary": {"id": "1181428", "order_id": "4078", "discount": "$0.00", "total": "$55.90", "total_tax": "$5.90", "created_date": 1515717551, "amount_paid": "$55.90", "sub_total": "$50.00", "customer": {"fullName": "Ernesto Betancourt", "id": "119550", "mobile": "+1 442-400-1925", "address1": "", "fullname": "Ernesto", "address2": "", "orgonization": "", "email": "", "phone": ""}, "ticket": {"hasTicket": false, "id": "", "order_id": ""}, "amount_due": "$0.00", "status": "Paid"}, "line_items": [{"name": "T-Mobile Plan (Think Digital)"}]}, {"summary": {"id": "1181408", "order_id": "4077", "discount": "$0.00", "total": "$135.90", "total_tax": "$5.90", "created_date": 1515717278, "amount_paid": "$135.90", "sub_total": "$130.00", "customer": {"fullName": "Jared Borrero", "id": "1793262", "mobile": "+1 760-782-2527", "address1": "", "fullname": "Jared", "address2": "", "orgonization": "", "email": "", "phone": ""}, "ticket": {"hasTicket": true, "id": "1081241", "order_id": "T-2040"}, "amount_due": "$0.00", "status": "Paid"}, "line_items": [{"name": "T-Mobile Plan"}, {"name": "T-Mobile Activation"}, {"name": "iPhone Manual SIM Unlock (2017)"}]}, {"summary": {"id": "1181162", "order_id": "4076", "discount": "$0.00", "total": "$111.80", "total_tax": "$11.80", "created_date": 1515713530, "amount_paid": "$111.80", "sub_total": "$100.00", "customer": {"fullName": "Miguel Arenas", "id": "118962", "mobile": "+1 760-558-9875", "address1": "", "fullname": "Miguel", "address2": "", "orgonization": "", "email": "", "phone": ""}, "ticket": {"hasTicket": false, "id": "", "order_id": ""}, "amount_due": "$0.00", "status": "Paid"}, "line_items": [{"name": "T-Mobile Plan (Think Digital)"}]}, {"summary": {"id": "1181070", "order_id": "4075", "discount": "$0.00", "total": "$40.00", "total_tax": "$0.00", "created_date": 1515712020, "amount_paid": "$40.00", "sub_total": "$40.00", "customer": {"fullName": "Tony Cruz", "id": "1792354", "mobile": "+1 760-396-6375", "address1": "", "fullname": "Tony", "address2": "", "orgonization": "", "email": "", "phone": ""}, "ticket": {"hasTicket": true, "id": "1080662", "order_id": "T-2039"}, "amount_due": "$0.00", "status": "Paid"}, "line_items": [{"name": "Labor"}]}, {"summary": {"id": "1180970", "order_id": "4074", "discount": "$0.00", "total": "$80.48", "total_tax": "$0.48", "created_date": 1515710100, "amount_paid": "$80.48", "sub_total": "$80.00", "customer": {"fullName": "Miriam Silva", "id": "1711575", "mobile": "+1 760-989-5755", "address1": "", "fullname": "Miriam", "address2": "", "orgonization": "", "email": "", "phone": ""}, "ticket": {"hasTicket": true, "id": "1028364", "order_id": "T-2027"}, "amount_due": "$0.00", "status": "Paid"}, "line_items": [{"name": "Charging Port Replacement"}]}, {"summary": {"id": "1160870", "order_id": "4073", "discount": "$0.00", "total": "$80.00", "total_tax": "$0.00", "created_date": 1515633801, "amount_paid": "$80.00", "sub_total": "$80.00", "customer": {"fullName": "Dara Waxman", "id": "1742058", "mobile": "+1 310-994-1764", "address1": "", "fullname": "Dara", "address2": "", "orgonization": "", "email": "", "phone": ""}, "ticket": {"hasTicket": true, "id": "1056533", "order_id": "T-2037"}, "amount_due": "$0.00", "status": "Paid"}, "line_items": [{"name": "Data Forensics"}]}, {"summary": {"id": "1160604", "order_id": "4072", "discount": "$0.00", "total": "$55.90", "total_tax": "$5.90", "created_date": 1515629004, "amount_paid": "$55.90", "sub_total": "$50.00", "customer": {"fullName": "Luis Alvarez", "id": "118960", "mobile": "+1 760-620-4299", "address1": "", "fullname": "Luis", "address2": "", "orgonization": "", "email": "", "phone": "+1 760-534-2162"}, "ticket": {"hasTicket": false, "id": "", "order_id": ""}, "amount_due": "$0.00", "status": "Paid"}, "line_items": [{"name": "T-Mobile Plan (Think Digital)"}]}, {"summary": {"id": "1160445", "order_id": "4071", "discount": "$0.00", "total": "$104.25", "total_tax": "$5.25", "created_date": 1515626118, "amount_paid": "$104.25", "sub_total": "$99.00", "customer": {"fullName": "Kylee Curry", "id": "1742005", "mobile": "+1 435-714-9933", "address1": "", "fullname": "Kylee", "address2": "", "orgonization": "", "email": "", "phone": ""}, "ticket": {"hasTicket": true, "id": "1056469", "order_id": "T-2036"}, "amount_due": "$0.00", "status": "Paid"}, "line_items": [{"name": "Screen (Digitizer+LCD)"}]}, {"summary": {"id": "1160394", "order_id": "4070", "discount": "$20.00", "total": "$112.00", "total_tax": "$7.00", "created_date": 1515624900, "amount_paid": "$112.00", "sub_total": "$125.00", "customer": {"fullName": "Kemo Marabet", "id": "401787", "mobile": "", "address1": "", "fullname": "Kemo", "address2": "", "orgonization": "", "email": "", "phone": ""}, "ticket": {"hasTicket": true, "id": "1056372", "order_id": "T-2035"}, "amount_due": "$0.00", "status": "Paid"}, "line_items": [{"name": "Screen (Digitizer+LCD) White"}, {"name": "Tempered Glass 6 plus/6S plus"}]}, {"summary": {"id": "1160380", "order_id": "4069", "discount": "$4.95", "total": "$97.55", "total_tax": "$3.50", "created_date": 1515624652, "amount_paid": "$97.55", "sub_total": "$99.00", "customer": {"fullName": "Anna Lopez", "id": "150349", "mobile": "+1 760-851-2031", "address1": "", "fullname": "Anna", "address2": "", "orgonization": "", "email": "annaibarra@msn.com", "phone": ""}, "ticket": {"hasTicket": true, "id": "1056548", "order_id": "T-2038"}, "amount_due": "$0.00", "status": "Paid"}, "line_items": [{"name": "Touch glass (Digitizer) White"}]}, {"summary": {"id": "1159956", "order_id": "4068", "discount": "$0.00", "total": "$50.31", "total_tax": "$5.31", "created_date": 1515613452, "amount_paid": "$50.31", "sub_total": "$45.00", "customer": {"fullName": "Ozzy Rendon", "id": "141675", "mobile": "1 760-412-0642", "address1": "", "fullname": "Ozzy", "address2": "", "orgonization": "", "email": "", "phone": ""}, "ticket": {"hasTicket": false, "id": "", "order_id": ""}, "amount_due": "$0.00", "status": "Paid"}, "line_items": [{"name": "T-Mobile Plan (Think Digital)"}]}, {"summary": {"id": "1154659", "order_id": "4067", "discount": "$0.00", "total": "$54.38", "total_tax": "$4.38", "created_date": 1515550740, "amount_paid": "$54.38", "sub_total": "$50.00", "customer": {"fullName": "Jose Morales", "id": "1720683", "mobile": "+1 760-609-9426", "address1": "", "fullname": "Jose", "address2": "", "orgonization": "", "email": "", "phone": ""}, "ticket": {"hasTicket": true, "id": "1045635", "order_id": "T-2034"}, "amount_due": "$0.00", "status": "Paid"}, "line_items": [{"name": "Camera Replacement"}]}, {"summary": {"id": "1154513", "order_id": "4066", "discount": "$0.00", "total": "$60.00", "total_tax": "$0.00", "created_date": 1515548323, "amount_paid": "$60.00", "sub_total": "$60.00", "customer": {"fullName": "Michiko Lopez", "id": "1720678", "mobile": "+1 760-673-9447", "address1": "", "fullname": "Michiko", "address2": "", "orgonization": "", "email": "", "phone": ""}, "ticket": {"hasTicket": true, "id": "1045631", "order_id": "T-2033"}, "amount_due": "$0.00", "status": "Paid"}, "line_items": [{"name": "iPhone Manual SIM Unlock (2017)"}]}], "pagination": {"page": 1, "per_page": 50, "total_records": 599, "total_pages": 12, "next_page_exist": 1, "previous_page_exist": 0}}}